<?xml version="1.0" encoding="UTF-8" standalone="no"?>
<!-- Created with Inkscape (http://www.inkscape.org/) -->

<svg
   xmlns:dc="http://purl.org/dc/elements/1.1/"
   xmlns:cc="http://creativecommons.org/ns#"
   xmlns:rdf="http://www.w3.org/1999/02/22-rdf-syntax-ns#"
   xmlns:svg="http://www.w3.org/2000/svg"
   xmlns="http://www.w3.org/2000/svg"
   xmlns:sodipodi="http://sodipodi.sourceforge.net/DTD/sodipodi-0.dtd"
   xmlns:inkscape="http://www.inkscape.org/namespaces/inkscape"
   width="24"
   height="24"
   viewBox="0 0 24 24"
   id="svg2"
   version="1.1"
   inkscape:version="0.91 r13725"
   sodipodi:docname="3.svg">
  <defs
     id="defs4" />
  <sodipodi:namedview
     id="base"
     pagecolor="#ffffff"
     bordercolor="#666666"
     borderopacity="1.0"
     inkscape:pageopacity="0.0"
     inkscape:pageshadow="2"
     inkscape:zoom="8.9031249"
     inkscape:cx="33.354846"
     inkscape:cy="-8.5724348"
     inkscape:document-units="px"
     inkscape:current-layer="svg2"
     showgrid="true"
     units="px"
     inkscape:snap-bbox="true"
     inkscape:bbox-paths="true"
     inkscape:object-nodes="false"
     inkscape:bbox-nodes="true"
     inkscape:snap-smooth-nodes="true"
     inkscape:window-width="1680"
     inkscape:window-height="963"
     inkscape:window-x="0"
     inkscape:window-y="24"
     inkscape:window-maximized="1">
    <inkscape:grid
       type="xygrid"
       id="grid4136" />
  </sodipodi:namedview>
  <metadata
     id="metadata7">
    <rdf:RDF>
      <cc:Work
         rdf:about="">
        <dc:format>image/svg+xml</dc:format>
        <dc:type
           rdf:resource="http://purl.org/dc/dcmitype/StillImage" />
        <dc:title />
      </cc:Work>
    </rdf:RDF>
  </metadata>
  <path
     style="opacity:1;fill:#000000;fill-opacity:1;fill-rule:nonzero;stroke:none;stroke-width:2;stroke-linecap:round;stroke-miterlimit:4;stroke-dasharray:none;stroke-dashoffset:0;stroke-opacity:1"
     d="M 10.729492,4 C 8.746483,4 7.754883,5.055071 7.754883,7.166016 l 0,1.46289 2.998047,0 0,-1.535156 c 0,-0.127936 0.04113,-0.239985 0.121093,-0.335938 0.09595,-0.09595 0.208001,-0.142578 0.335938,-0.142578 l 1.605469,0 c 0.127934,0 0.23254,0.04663 0.3125,0.142578 0.09595,0.09595 0.144531,0.208002 0.144531,0.335938 l 0,3.023438 c 0,0.127935 -0.04858,0.239985 -0.144531,0.335937 -0.07996,0.09595 -0.184564,0.144531 -0.3125,0.144531 l -2.326172,0 0,2.589844 2.470703,0 c 0.127936,0 0.23254,0.04858 0.3125,0.144531 0.09595,0.09595 0.142578,0.208002 0.142578,0.335938 l 0,3.308593 c 0,0.127937 -0.04662,0.239986 -0.142578,0.335938 -0.07996,0.09595 -0.184563,0.144531 -0.3125,0.144531 l -1.894531,0 c -0.127936,0 -0.239986,-0.04858 -0.335938,-0.144531 -0.07996,-0.09595 -0.121094,-0.208002 -0.121094,-0.335938 l 0,-1.414062 -2.998046,0 0,1.271484 C 7.610351,18.944929 8.601953,20 10.584961,20 l 2.830078,0 c 1.983008,0 2.974609,-1.055071 2.974609,-3.166016 l 0,-2.302734 c 0,-1.279361 -0.375329,-2.1832 -1.126953,-2.710938 0.655673,-0.479759 0.984375,-1.34442 0.984375,-2.591796 l 0,-2.0625 C 16.24707,5.055071 15.25547,4 13.272461,4 Z"
     id="rect4398"
     inkscape:connector-curvature="0"
     sodipodi:nodetypes="ssccscsscsscsccscsscsscsccssssscssss" />
</svg>
