<?xml version="1.0" encoding="UTF-8" standalone="no"?>
<svg
   xmlns:dc="http://purl.org/dc/elements/1.1/"
   xmlns:cc="http://creativecommons.org/ns#"
   xmlns:rdf="http://www.w3.org/1999/02/22-rdf-syntax-ns#"
   xmlns:svg="http://www.w3.org/2000/svg"
   xmlns="http://www.w3.org/2000/svg"
   xmlns:sodipodi="http://sodipodi.sourceforge.net/DTD/sodipodi-0.dtd"
   xmlns:inkscape="http://www.inkscape.org/namespaces/inkscape"
   version="1.1"
   width="40"
   height="40"
   viewBox="0 0 40 40"
   id="svg4165"
   inkscape:version="0.91 r13725"
   sodipodi:docname="tmp.svg">
  <metadata
     id="metadata4173">
    <rdf:RDF>
      <cc:Work
         rdf:about="">
        <dc:format>image/svg+xml</dc:format>
        <dc:type
           rdf:resource="http://purl.org/dc/dcmitype/StillImage" />
        <dc:title></dc:title>
      </cc:Work>
    </rdf:RDF>
  </metadata>
  <defs
     id="defs4171" />
  <sodipodi:namedview
     pagecolor="#ffffff"
     bordercolor="#666666"
     borderopacity="1"
     objecttolerance="10"
     gridtolerance="10"
     guidetolerance="10"
     inkscape:pageopacity="0"
     inkscape:pageshadow="2"
     inkscape:window-width="1680"
     inkscape:window-height="963"
     id="namedview4169"
     showgrid="true"
     inkscape:snap-bbox="true"
     inkscape:snap-global="true"
     inkscape:snap-center="true"
     inkscape:snap-object-midpoints="true"
     inkscape:object-nodes="true"
     inkscape:zoom="14.03607"
     inkscape:cx="12.720403"
     inkscape:cy="22.015113"
     inkscape:window-x="0"
     inkscape:window-y="24"
     inkscape:window-maximized="1"
     inkscape:current-layer="svg4165">
    <inkscape:grid
       type="xygrid"
       id="grid4175" />
  </sodipodi:namedview>
  <circle
     style="opacity:1;fill:#000000;fill-opacity:1;fill-rule:nonzero;stroke:none;stroke-width:2;stroke-linecap:round;stroke-miterlimit:4;stroke-dasharray:none;stroke-dashoffset:0;stroke-opacity:1"
     id="path4756"
     cx="20"
     cy="4"
     r="3"
     inkscape:transform-center-y="-16"
     inkscape:tile-cx="20"
     inkscape:tile-cy="20"
     inkscape:tile-w="6"
     inkscape:tile-h="6"
     inkscape:tile-x0="17"
     inkscape:tile-y0="1" />
  <circle
     inkscape:tile-y0="1"
     inkscape:tile-x0="17"
     inkscape:transform-center-y="-16"
     r="3"
     cy="4"
     cx="20"
     id="use4806"
     style="opacity:1;fill:#000000;fill-opacity:1;fill-rule:nonzero;stroke:none;stroke-width:2;stroke-linecap:round;stroke-miterlimit:4;stroke-dasharray:none;stroke-dashoffset:0;stroke-opacity:1" />
  <circle
     inkscape:tile-y0="1"
     inkscape:tile-x0="17"
     inkscape:transform-center-y="-16"
     r="3"
     cy="-1.8578644"
     cx="24.494898"
     id="use4808"
     style="opacity:1;fill:#000000;fill-opacity:1;fill-rule:nonzero;stroke:none;stroke-width:2;stroke-linecap:round;stroke-miterlimit:4;stroke-dasharray:none;stroke-dashoffset:0;stroke-opacity:1"
     transform="matrix(0.96592583,0.25881905,-0.25881905,0.96592583,0,0)" />
  <circle
     inkscape:tile-y0="1"
     inkscape:tile-x0="17"
     inkscape:transform-center-y="-16"
     r="3"
     cy="-8.679492"
     cx="27.320509"
     id="use4810"
     style="opacity:1;fill:#000000;fill-opacity:1;fill-rule:nonzero;stroke:none;stroke-width:2;stroke-linecap:round;stroke-miterlimit:4;stroke-dasharray:none;stroke-dashoffset:0;stroke-opacity:1"
     transform="matrix(0.8660254,0.5,-0.5,0.8660254,0,0)" />
  <circle
     inkscape:tile-y0="1"
     inkscape:tile-x0="17"
     inkscape:transform-center-y="-16"
     r="3"
     cy="-16"
     cx="28.284271"
     id="use4812"
     style="opacity:1;fill:#000000;fill-opacity:1;fill-rule:nonzero;stroke:none;stroke-width:2;stroke-linecap:round;stroke-miterlimit:4;stroke-dasharray:none;stroke-dashoffset:0;stroke-opacity:1"
     transform="matrix(0.70710678,0.70710678,-0.70710678,0.70710678,0,0)" />
  <circle
     inkscape:tile-y0="1"
     inkscape:tile-x0="17"
     inkscape:transform-center-y="-16"
     r="3"
     cy="-23.320509"
     cx="27.320507"
     id="use4814"
     style="opacity:1;fill:#000000;fill-opacity:1;fill-rule:nonzero;stroke:none;stroke-width:2;stroke-linecap:round;stroke-miterlimit:4;stroke-dasharray:none;stroke-dashoffset:0;stroke-opacity:1"
     transform="matrix(0.5,0.8660254,-0.8660254,0.5,0,0)" />
  <circle
     inkscape:tile-y0="1"
     inkscape:tile-x0="17"
     inkscape:transform-center-y="-16"
     r="3"
     cy="-30.142136"
     cx="24.494898"
     id="use4816"
     style="opacity:1;fill:#000000;fill-opacity:1;fill-rule:nonzero;stroke:none;stroke-width:2;stroke-linecap:round;stroke-miterlimit:4;stroke-dasharray:none;stroke-dashoffset:0;stroke-opacity:1"
     transform="matrix(0.25881905,0.96592583,-0.96592583,0.25881905,0,0)" />
  <circle
     inkscape:tile-y0="1"
     inkscape:tile-x0="17"
     inkscape:transform-center-y="-16"
     r="3"
     cy="-36"
     cx="20"
     id="use4818"
     style="opacity:1;fill:#000000;fill-opacity:1;fill-rule:nonzero;stroke:none;stroke-width:2;stroke-linecap:round;stroke-miterlimit:4;stroke-dasharray:none;stroke-dashoffset:0;stroke-opacity:1"
     transform="matrix(0,1,-1,0,0,0)" />
  <circle
     inkscape:tile-y0="1"
     inkscape:tile-x0="17"
     inkscape:transform-center-y="-16"
     r="3"
     cy="-40.494896"
     cx="14.142136"
     id="use4820"
     style="opacity:1;fill:#000000;fill-opacity:1;fill-rule:nonzero;stroke:none;stroke-width:2;stroke-linecap:round;stroke-miterlimit:4;stroke-dasharray:none;stroke-dashoffset:0;stroke-opacity:1"
     transform="matrix(-0.25881905,0.96592583,-0.96592583,-0.25881905,0,0)" />
  <circle
     inkscape:tile-y0="1"
     inkscape:tile-x0="17"
     inkscape:transform-center-y="-16"
     r="3"
     cy="-43.320507"
     cx="7.320508"
     id="use4822"
     style="opacity:1;fill:#000000;fill-opacity:1;fill-rule:nonzero;stroke:none;stroke-width:2;stroke-linecap:round;stroke-miterlimit:4;stroke-dasharray:none;stroke-dashoffset:0;stroke-opacity:1"
     transform="matrix(-0.5,0.8660254,-0.8660254,-0.5,0,0)" />
  <circle
     inkscape:tile-y0="1"
     inkscape:tile-x0="17"
     inkscape:transform-center-y="-16"
     r="3"
     cy="-44.284271"
     cx="1.4142137e-07"
     id="use4824"
     style="opacity:1;fill:#000000;fill-opacity:1;fill-rule:nonzero;stroke:none;stroke-width:2;stroke-linecap:round;stroke-miterlimit:4;stroke-dasharray:none;stroke-dashoffset:0;stroke-opacity:1"
     transform="matrix(-0.70710678,0.70710678,-0.70710678,-0.70710678,0,0)" />
  <circle
     inkscape:tile-y0="1"
     inkscape:tile-x0="17"
     inkscape:transform-center-y="-16"
     r="3"
     cy="-43.320507"
     cx="-7.320508"
     id="use4826"
     style="opacity:1;fill:#000000;fill-opacity:1;fill-rule:nonzero;stroke:none;stroke-width:2;stroke-linecap:round;stroke-miterlimit:4;stroke-dasharray:none;stroke-dashoffset:0;stroke-opacity:1"
     transform="matrix(-0.8660254,0.5,-0.5,-0.8660254,0,0)" />
  <circle
     inkscape:tile-y0="1"
     inkscape:tile-x0="17"
     inkscape:transform-center-y="-16"
     r="3"
     cy="-40.494896"
     cx="-14.142135"
     id="use4828"
     style="opacity:1;fill:#000000;fill-opacity:1;fill-rule:nonzero;stroke:none;stroke-width:2;stroke-linecap:round;stroke-miterlimit:4;stroke-dasharray:none;stroke-dashoffset:0;stroke-opacity:1"
     transform="matrix(-0.96592583,0.25881905,-0.25881905,-0.96592583,0,0)" />
  <circle
     inkscape:tile-y0="1"
     inkscape:tile-x0="17"
     inkscape:transform-center-y="-16"
     r="3"
     cy="-36"
     cx="-20"
     id="use4830"
     style="opacity:1;fill:#000000;fill-opacity:1;fill-rule:nonzero;stroke:none;stroke-width:2;stroke-linecap:round;stroke-miterlimit:4;stroke-dasharray:none;stroke-dashoffset:0;stroke-opacity:1"
     transform="scale(-1,-1)" />
  <circle
     inkscape:tile-y0="1"
     inkscape:tile-x0="17"
     inkscape:transform-center-y="-16"
     r="3"
     cy="-30.142136"
     cx="-24.494898"
     id="use4832"
     style="opacity:1;fill:#000000;fill-opacity:1;fill-rule:nonzero;stroke:none;stroke-width:2;stroke-linecap:round;stroke-miterlimit:4;stroke-dasharray:none;stroke-dashoffset:0;stroke-opacity:1"
     transform="matrix(-0.96592583,-0.25881905,0.25881905,-0.96592583,0,0)" />
  <circle
     inkscape:tile-y0="1"
     inkscape:tile-x0="17"
     inkscape:transform-center-y="-16"
     r="3"
     cy="-23.320507"
     cx="-27.320509"
     id="use4834"
     style="opacity:1;fill:#000000;fill-opacity:1;fill-rule:nonzero;stroke:none;stroke-width:2;stroke-linecap:round;stroke-miterlimit:4;stroke-dasharray:none;stroke-dashoffset:0;stroke-opacity:1"
     transform="matrix(-0.8660254,-0.5,0.5,-0.8660254,0,0)" />
  <circle
     inkscape:tile-y0="1"
     inkscape:tile-x0="17"
     inkscape:transform-center-y="-16"
     r="3"
     cy="-16"
     cx="-28.284271"
     id="use4836"
     style="opacity:1;fill:#000000;fill-opacity:1;fill-rule:nonzero;stroke:none;stroke-width:2;stroke-linecap:round;stroke-miterlimit:4;stroke-dasharray:none;stroke-dashoffset:0;stroke-opacity:1"
     transform="matrix(-0.70710678,-0.70710678,0.70710678,-0.70710678,0,0)" />
  <circle
     inkscape:tile-y0="1"
     inkscape:tile-x0="17"
     inkscape:transform-center-y="-16"
     r="3"
     cy="-8.679492"
     cx="-27.320509"
     id="use4838"
     style="opacity:1;fill:#000000;fill-opacity:1;fill-rule:nonzero;stroke:none;stroke-width:2;stroke-linecap:round;stroke-miterlimit:4;stroke-dasharray:none;stroke-dashoffset:0;stroke-opacity:1"
     transform="matrix(-0.5,-0.8660254,0.8660254,-0.5,0,0)" />
  <circle
     inkscape:tile-y0="1"
     inkscape:tile-x0="17"
     inkscape:transform-center-y="-16"
     r="3"
     cy="-1.8578644"
     cx="-24.494898"
     id="use4840"
     style="opacity:1;fill:#000000;fill-opacity:1;fill-rule:nonzero;stroke:none;stroke-width:2;stroke-linecap:round;stroke-miterlimit:4;stroke-dasharray:none;stroke-dashoffset:0;stroke-opacity:1"
     transform="matrix(-0.25881905,-0.96592583,0.96592583,-0.25881905,0,0)" />
  <circle
     inkscape:tile-y0="1"
     inkscape:tile-x0="17"
     inkscape:transform-center-y="-16"
     r="3"
     cy="4"
     cx="-20"
     id="use4842"
     style="opacity:1;fill:#000000;fill-opacity:1;fill-rule:nonzero;stroke:none;stroke-width:2;stroke-linecap:round;stroke-miterlimit:4;stroke-dasharray:none;stroke-dashoffset:0;stroke-opacity:1"
     transform="matrix(0,-1,1,0,0,0)" />
  <circle
     inkscape:tile-y0="1"
     inkscape:tile-x0="17"
     inkscape:transform-center-y="-16"
     r="3"
     cy="8.4948978"
     cx="-14.142136"
     id="use4844"
     style="opacity:1;fill:#000000;fill-opacity:1;fill-rule:nonzero;stroke:none;stroke-width:2;stroke-linecap:round;stroke-miterlimit:4;stroke-dasharray:none;stroke-dashoffset:0;stroke-opacity:1"
     transform="matrix(0.25881905,-0.96592583,0.96592583,0.25881905,0,0)" />
  <circle
     inkscape:tile-y0="1"
     inkscape:tile-x0="17"
     inkscape:transform-center-y="-16"
     r="3"
     cy="11.320508"
     cx="-7.320508"
     id="use4846"
     style="opacity:1;fill:#000000;fill-opacity:1;fill-rule:nonzero;stroke:none;stroke-width:2;stroke-linecap:round;stroke-miterlimit:4;stroke-dasharray:none;stroke-dashoffset:0;stroke-opacity:1"
     transform="matrix(0.5,-0.8660254,0.8660254,0.5,0,0)" />
  <circle
     inkscape:tile-y0="1"
     inkscape:tile-x0="17"
     inkscape:transform-center-y="-16"
     r="3"
     cy="12.284271"
     cx="1.7763568e-15"
     id="use4848"
     style="opacity:1;fill:#000000;fill-opacity:1;fill-rule:nonzero;stroke:none;stroke-width:2;stroke-linecap:round;stroke-miterlimit:4;stroke-dasharray:none;stroke-dashoffset:0;stroke-opacity:1"
     transform="matrix(0.70710678,-0.70710678,0.70710678,0.70710678,0,0)" />
  <circle
     inkscape:tile-y0="1"
     inkscape:tile-x0="17"
     inkscape:transform-center-y="-16"
     r="3"
     cy="11.320508"
     cx="7.320508"
     id="use4850"
     style="opacity:1;fill:#000000;fill-opacity:1;fill-rule:nonzero;stroke:none;stroke-width:2;stroke-linecap:round;stroke-miterlimit:4;stroke-dasharray:none;stroke-dashoffset:0;stroke-opacity:1"
     transform="matrix(0.8660254,-0.5,0.5,0.8660254,0,0)" />
  <circle
     inkscape:tile-y0="1"
     inkscape:tile-x0="17"
     inkscape:transform-center-y="-16"
     r="3"
     cy="8.4948978"
     cx="14.142136"
     id="use4852"
     style="opacity:1;fill:#000000;fill-opacity:1;fill-rule:nonzero;stroke:none;stroke-width:2;stroke-linecap:round;stroke-miterlimit:4;stroke-dasharray:none;stroke-dashoffset:0;stroke-opacity:1"
     transform="matrix(0.96592583,-0.25881905,0.25881905,0.96592583,0,0)" />
</svg>
