<?xml version="1.0" encoding="UTF-8" standalone="no"?>
<svg
   xmlns:dc="http://purl.org/dc/elements/1.1/"
   xmlns:cc="http://creativecommons.org/ns#"
   xmlns:rdf="http://www.w3.org/1999/02/22-rdf-syntax-ns#"
   xmlns:svg="http://www.w3.org/2000/svg"
   xmlns="http://www.w3.org/2000/svg"
   xmlns:sodipodi="http://sodipodi.sourceforge.net/DTD/sodipodi-0.dtd"
   xmlns:inkscape="http://www.inkscape.org/namespaces/inkscape"
   width="24"
   height="24"
   viewBox="0 0 24 24"
   id="svg4198"
   version="1.1"
   inkscape:version="0.91 r13725"
   sodipodi:docname="unsupported_hub.svg">
  <metadata
     id="metadata4208">
    <rdf:RDF>
      <cc:Work
         rdf:about="">
        <dc:format>image/svg+xml</dc:format>
        <dc:type
           rdf:resource="http://purl.org/dc/dcmitype/StillImage" />
        <dc:title></dc:title>
      </cc:Work>
    </rdf:RDF>
  </metadata>
  <defs
     id="defs4206" />
  <sodipodi:namedview
     pagecolor="#ffffff"
     bordercolor="#666666"
     borderopacity="1"
     objecttolerance="10"
     gridtolerance="10"
     guidetolerance="10"
     inkscape:pageopacity="0"
     inkscape:pageshadow="2"
     inkscape:window-width="1680"
     inkscape:window-height="963"
     id="namedview4204"
     showgrid="true"
     inkscape:snap-bbox="false"
     inkscape:object-nodes="true"
     inkscape:snap-global="true"
     inkscape:snap-nodes="true"
     inkscape:zoom="16.541667"
     inkscape:cx="12"
     inkscape:cy="12"
     inkscape:window-x="0"
     inkscape:window-y="24"
     inkscape:window-maximized="1"
     inkscape:current-layer="svg4198">
    <inkscape:grid
       type="xygrid"
       id="grid4210" />
  </sodipodi:namedview>
  <path
     d="M0 0h24v24H0z"
     id="path4200"
     fill="none" />
  <path
     d="M 12 0 C 9.6713062 0 7.5153823 0.72480341 5.7382812 1.9570312 L 7.1835938 3.4023438 C 8.5770699 2.5206829 10.224913 2 12 2 C 14.49 2 16.739375 3.010625 18.359375 4.640625 L 19.769531 3.2304688 C 17.789531 1.2304686 15.04 -2.9605947e-16 12 0 z M 2.7558594 1.4941406 L 1.4941406 2.7558594 L 8.1875 9.4492188 C 8.0781833 9.6094619 8 9.7924895 8 10 L 8 22 C 8 22.55 8.45 23 9 23 L 15 23 C 15.55 23 16 22.55 16 22 L 16 17.261719 L 21.244141 22.505859 L 22.505859 21.244141 L 16 14.738281 L 13.970703 12.708984 L 12.291016 11.029297 L 10.261719 9 L 8.6054688 7.34375 L 7.1875 5.9257812 L 5.7675781 4.5058594 L 4.3574219 3.0957031 L 2.7558594 1.4941406 z M 12 4 C 10.783105 4 9.6392039 4.3118887 8.640625 4.859375 L 10.146484 6.3652344 C 10.721418 6.1355557 11.343661 6 12 6 C 13.38 6 14.629062 6.5609375 15.539062 7.4609375 L 16.949219 6.0507812 C 15.679219 4.7807813 13.93 4 12 4 z M 12.78125 9 L 16 12.21875 L 16 10 C 16 9.45 15.55 9 15 9 L 12.78125 9 z M 10.46875 11.730469 L 13.269531 14.53125 C 12.922759 14.819553 12.483488 15 12 15 C 10.9 15 10 14.1 10 13 C 10 12.516512 10.180447 12.077241 10.46875 11.730469 z "
     id="path4202" />
  <path
     inkscape:connector-curvature="0"
     style="fill:none"
     d="m -15.564232,-9.3324937 24.0000003,0 0,23.9999997 -24.0000003,0 z"
     id="path4266" />
</svg>
